{"total_count":148,"total_pages":15,"current_page":1,"next_page":2,"previous_page":1,"data":[{"id":"67efd92d64c71291a947e05f","type":"BURN","domain":"GET-BRAZA","amount":"10","operator":"thiago.santos@braza.com.br","token":"BBRL","fireblocks_status":"COMPLETED","blockchain_status":"COMPLETED","fireblocks_id":"79068f6c-e1e3-4e54-94cf-43bb3797368b","transaction_hash":"4E926479EF61495D4044C8BCFA5F554454FFCBAD326DF3BEB649EB173E36936C","transaction_link":"https://testnet.xrpl.org/transactions/4E926479EF61495D4044C8BCFA5F554454FFCBAD326DF3BEB649EB173E36936C","created_at":"2025-04-04T13:05:49.642Z","updated_at":"2025-04-04T13:05:56.622Z"},{"id":"67d9b5463f3c20d17db0afe6","type":"MINT","domain":"GET-BRAZA","amount":"11","operator":"thiago.santos@braza.com.br","token":"USDB","fireblocks_status":"COMPLETED","blockchain_status":"COMPLETED","fireblocks_id":"8d3cc202-3b78-484c-97e1-9c49ba10bcfd","transaction_hash":"128CFDE88447D4D5192047232B01274128B427E0C2C9BAA4837C39CC7528E12F","transaction_link":"https://testnet.xrpl.org/transactions/128CFDE88447D4D5192047232B01274128B427E0C2C9BAA4837C39CC7528E12F","created_at":"2025-03-18T18:02:46.159Z","updated_at":"2025-03-18T18:02:53.37Z"},{"id":"67a0c41d82915f9befcb012a","type":"MINT","domain":"GET-BRAZA","amount":"11","operator":"thiago.santos@braza.com.br","token":"BBRL","fireblocks_status":"COMPLETED","blockchain_status":"COMPLETED","fireblocks_id":"6864ec22-6d64-4fd8-96a0-ba46a429915d","transaction_hash":"27FBF86D089C97E5DBD4DA15FDF1205D2608F498927D399FDA24F62AB2380124","transaction_link":"https://testnet.xrpl.org/transactions/27FBF86D089C97E5DBD4DA15FDF1205D2608F498927D399FDA24F62AB2380124","created_at":"2025-02-03T13:26:53.31Z","updated_at":"2025-02-03T13:27:00.291Z"},{"id":"67a0c40682915f9befcb0122","type":"BURN","domain":"GET-BRAZA","amount":"21","operator":"thiago.santos@braza.com.br","token":"BBRL","fireblocks_status":"COMPLETED","blockchain_status":"COMPLETED","fireblocks_id":"4b34caa9-7c69-487b-8c4a-df8d7bcd9943","transaction_hash":"A5BC0ABF1BE9253841874A7AEC2DA13D1041AC84FED15DB9B0CDDD908F5124BD","transaction_link":"https://testnet.xrpl.org/transactions/A5BC0ABF1BE9253841874A7AEC2DA13D1041AC84FED15DB9B0CDDD908F5124BD","created_at":"2025-02-03T13:26:30.38Z","updated_at":"2025-02-03T13:26:38.208Z"},{"id":"677d6f21f2b73824c4340e3c","type":"BURN","domain":"GET-BRAZA","amount":"20","operator":"developers.getbraza@braza.com.br","token":"USDB","fireblocks_status":"COMPLETED","blockchain_status":"COMPLETED","fireblocks_id":"0898040e-b723-4ce1-af2d-2132774bb790","transaction_hash":"74350604A7CF9D02E0F180B86477519BB4B96786ED278D8C398E8BB2621A1D9C","transaction_link":"https://testnet.xrpl.org/transactions/74350604A7CF9D02E0F180B86477519BB4B96786ED278D8C398E8BB2621A1D9C","created_at":"2025-01-07T18:14:57.781Z","updated_at":"2025-01-07T18:15:04.923Z"},{"id":"677d6ed0f2b73824c4340e36","type":"BURN","domain":"GET-BRAZA","amount":"20","operator":"developers.getbraza@braza.com.br","token":"USDB","fireblocks_status":"SUBMITTED","blockchain_status":"","fireblocks_id":"9454c078-6f4f-4f7d-872c-9b33b60865cc","transaction_hash":"","transaction_link":"","created_at":"2025-01-07T18:13:36.647Z","updated_at":"2025-01-07T18:13:38.328Z"},{"id":"677c3d48b4efe8aa91959348","type":"BURN","domain":"BRAZA-DESK","amount":"1234","operator":"joao.campos@braza.com.br","token":"BBRL","fireblocks_status":"COMPLETED","blockchain_status":"FAILED","fireblocks_id":"443c002f-61d8-4265-9784-b888b10a50fc","transaction_hash":"","transaction_link":"","created_at":"2025-01-06T20:30:00.771Z","updated_at":"2025-01-06T20:30:08.382Z"},{"id":"676311ee54d2ad9e559dd6a6","type":"BURN","domain":"GET-BRAZA","amount":"21","operator":"thiago.santos@braza.com.br","token":"USDB","fireblocks_status":"COMPLETED","blockchain_status":"COMPLETED","fireblocks_id":"ae689f0f-c837-4f5e-9ce8-caf22cf3893f","transaction_hash":"8E492B8DF62FF756894EFFE66A9C8A935B77EE2941FDF4D0F731BCF3F09BF11B","transaction_link":"https://testnet.xrpl.org/transactions/8E492B8DF62FF756894EFFE66A9C8A935B77EE2941FDF4D0F731BCF3F09BF11B","created_at":"2024-12-18T18:18:22.767Z","updated_at":"2024-12-18T18:18:29.471Z"},{"id":"6762eba754d2ad9e559dd69a","type":"MINT","domain":"GET-BRAZA","amount":"21","operator":"thiago.santos@braza.com.br","token":"USDB","fireblocks_status":"COMPLETED","blockchain_status":"COMPLETED","fireblocks_id":"3b19e8f4-4fb9-4472-9ea6-f1dabb78fa1e","transaction_hash":"3C73377408FE6208F360D40D488B7F121A2419EF41CB041B6877BE7D2ACFEB45","transaction_link":"https://testnet.xrpl.org/transactions/3C73377408FE6208F360D40D488B7F121A2419EF41CB041B6877BE7D2ACFEB45","created_at":"2024-12-18T15:35:03.269Z","updated_at":"2024-12-18T15:35:10.278Z"},{"id":"6762ea2f54d2ad9e559dd692","type":"BURN","domain":"GET-BRAZA","amount":"11","operator":"thiago.santos@braza.com.br","token":"USDB","fireblocks_status":"COMPLETED","blockchain_status":"COMPLETED","fireblocks_id":"593df8d5-2efd-482f-9910-950b275c04b8","transaction_hash":"F56820253348941B88DBF8FFB6FCF2F748A4D1D0C4417A8B2DCC0576809E19B3","transaction_link":"https://testnet.xrpl.org/transactions/F56820253348941B88DBF8FFB6FCF2F748A4D1D0C4417A8B2DCC0576809E19B3","created_at":"2024-12-18T15:28:47.146Z","updated_at":"2024-12-18T15:28:54.255Z"}]}